<?xml version="1.0" encoding="UTF-8" standalone="no"?>
<!-- Created with Inkscape (http://www.inkscape.org/) -->

<svg
   xmlns:dc="http://purl.org/dc/elements/1.1/"
   xmlns:cc="http://creativecommons.org/ns#"
   xmlns:rdf="http://www.w3.org/1999/02/22-rdf-syntax-ns#"
   xmlns:svg="http://www.w3.org/2000/svg"
   xmlns="http://www.w3.org/2000/svg"
   xmlns:xlink="http://www.w3.org/1999/xlink"
   xmlns:sodipodi="http://sodipodi.sourceforge.net/DTD/sodipodi-0.dtd"
   xmlns:inkscape="http://www.inkscape.org/namespaces/inkscape"
   width="744.09448819"
   height="1052.3622047"
   id="svg4914"
   version="1.1"
   inkscape:version="0.48.2 r9819"
   sodipodi:docname="New document 19">
  <defs
     id="defs4916">
    <linearGradient
       inkscape:collect="always"
       id="linearGradient5696">
      <stop
         style="stop-color:#ffffff;stop-opacity:1"
         offset="0"
         id="stop5698" />
      <stop
         style="stop-color:#29859d;stop-opacity:1"
         offset="1"
         id="stop5700" />
    </linearGradient>
    <linearGradient
       id="linearGradient5589"
       inkscape:collect="always">
      <stop
         id="stop5591"
         offset="0"
         style="stop-color:#ffffff;stop-opacity:1" />
      <stop
         id="stop5593"
         offset="1"
         style="stop-color:#19601b;stop-opacity:1" />
    </linearGradient>
    <linearGradient
       inkscape:collect="always"
       id="linearGradient5432">
      <stop
         style="stop-color:#ffffff;stop-opacity:1"
         offset="0"
         id="stop5434" />
      <stop
         style="stop-color:#f5d600;stop-opacity:1"
         offset="1"
         id="stop5436" />
    </linearGradient>
    <linearGradient
       inkscape:collect="always"
       xlink:href="#linearGradient5432"
       id="linearGradient5438"
       x1="117.698"
       y1="33.623344"
       x2="117.66755"
       y2="138.67921"
       gradientUnits="userSpaceOnUse"
       gradientTransform="matrix(0.30420754,0,0,0.30420754,516.83864,25.71625)" />
    <linearGradient
       inkscape:collect="always"
       xlink:href="#linearGradient5432-2"
       id="linearGradient5438-1"
       x1="117.698"
       y1="33.623344"
       x2="117.66755"
       y2="138.67921"
       gradientUnits="userSpaceOnUse"
       gradientTransform="matrix(0.30420754,0,0,0.30420754,516.83864,25.71625)" />
    <linearGradient
       inkscape:collect="always"
       id="linearGradient5432-2">
      <stop
         style="stop-color:#ffffff;stop-opacity:1"
         offset="0"
         id="stop5434-4" />
      <stop
         style="stop-color:#f5d600;stop-opacity:1"
         offset="1"
         id="stop5436-4" />
    </linearGradient>
    <linearGradient
       y2="138.67921"
       x2="117.66755"
       y1="33.623344"
       x1="117.698"
       gradientTransform="matrix(0.30420754,0,0,0.30420754,682.24176,26.462166)"
       gradientUnits="userSpaceOnUse"
       id="linearGradient5475"
       xlink:href="#linearGradient5432-2"
       inkscape:collect="always" />
    <linearGradient
       inkscape:collect="always"
       xlink:href="#linearGradient5432-6"
       id="linearGradient5438-4"
       x1="117.698"
       y1="33.623344"
       x2="117.66755"
       y2="138.67921"
       gradientUnits="userSpaceOnUse"
       gradientTransform="matrix(0.30420754,0,0,0.30420754,516.83864,25.71625)" />
    <linearGradient
       inkscape:collect="always"
       id="linearGradient5432-6">
      <stop
         style="stop-color:#ffffff;stop-opacity:1"
         offset="0"
         id="stop5434-2" />
      <stop
         style="stop-color:#f5d600;stop-opacity:1"
         offset="1"
         id="stop5436-3" />
    </linearGradient>
    <linearGradient
       y2="138.67921"
       x2="117.66755"
       y1="33.623344"
       x1="117.698"
       gradientTransform="matrix(0.30420754,0,0,0.30420754,515.8132,126.46217)"
       gradientUnits="userSpaceOnUse"
       id="linearGradient5475-9"
       xlink:href="#linearGradient5432-6"
       inkscape:collect="always" />
    <linearGradient
       inkscape:collect="always"
       xlink:href="#linearGradient5432-5"
       id="linearGradient5438-0"
       x1="117.698"
       y1="33.623344"
       x2="117.66755"
       y2="138.67921"
       gradientUnits="userSpaceOnUse"
       gradientTransform="matrix(0.30420754,0,0,0.30420754,516.83864,25.71625)" />
    <linearGradient
       inkscape:collect="always"
       id="linearGradient5432-5">
      <stop
         style="stop-color:#ffffff;stop-opacity:1"
         offset="0"
         id="stop5434-0" />
      <stop
         style="stop-color:#f5d600;stop-opacity:1"
         offset="1"
         id="stop5436-5" />
    </linearGradient>
    <linearGradient
       y2="138.67921"
       x2="117.66755"
       y1="33.623344"
       x1="117.698"
       gradientTransform="matrix(0.30420754,0,0,0.30420754,682.95605,127.17645)"
       gradientUnits="userSpaceOnUse"
       id="linearGradient5475-4"
       xlink:href="#linearGradient5432-5"
       inkscape:collect="always" />
    <linearGradient
       inkscape:collect="always"
       xlink:href="#linearGradient5432-0"
       id="linearGradient5438-9"
       x1="117.698"
       y1="33.623344"
       x2="117.66755"
       y2="138.67921"
       gradientUnits="userSpaceOnUse"
       gradientTransform="matrix(0.30420754,0,0,0.30420754,516.83864,25.71625)" />
    <linearGradient
       inkscape:collect="always"
       id="linearGradient5432-0">
      <stop
         style="stop-color:#ffffff;stop-opacity:1"
         offset="0"
         id="stop5434-6" />
      <stop
         style="stop-color:#f5d600;stop-opacity:1"
         offset="1"
         id="stop5436-0" />
    </linearGradient>
    <linearGradient
       y2="253.73225"
       x2="117.66755"
       y1="33.623344"
       x1="117.698"
       gradientTransform="matrix(0.30420754,0,0,0.30420754,514.38463,227.17646)"
       gradientUnits="userSpaceOnUse"
       id="linearGradient5475-0"
       xlink:href="#linearGradient5589"
       inkscape:collect="always" />
    <linearGradient
       y2="253.73225"
       x2="117.66755"
       y1="33.623344"
       x1="117.698"
       gradientTransform="matrix(0.30420754,0,0,0.30420754,514.38463,227.17646)"
       gradientUnits="userSpaceOnUse"
       id="linearGradient5475-0-1"
       xlink:href="#linearGradient5589-2"
       inkscape:collect="always" />
    <linearGradient
       id="linearGradient5589-2"
       inkscape:collect="always">
      <stop
         id="stop5591-8"
         offset="0"
         style="stop-color:#ffffff;stop-opacity:1" />
      <stop
         id="stop5593-2"
         offset="1"
         style="stop-color:#19601b;stop-opacity:1" />
    </linearGradient>
    <linearGradient
       y2="253.73225"
       x2="117.66755"
       y1="33.623344"
       x1="117.698"
       gradientTransform="matrix(0.30420754,0,0,0.30420754,644.38466,227.53361)"
       gradientUnits="userSpaceOnUse"
       id="linearGradient5613"
       xlink:href="#linearGradient5589-2"
       inkscape:collect="always" />
    <linearGradient
       y2="253.73225"
       x2="117.66755"
       y1="33.623344"
       x1="117.698"
       gradientTransform="matrix(0.30420754,0,0,0.30420754,514.38463,227.17646)"
       gradientUnits="userSpaceOnUse"
       id="linearGradient5475-0-2"
       xlink:href="#linearGradient5589-0"
       inkscape:collect="always" />
    <linearGradient
       id="linearGradient5589-0"
       inkscape:collect="always">
      <stop
         id="stop5591-7"
         offset="0"
         style="stop-color:#ffffff;stop-opacity:1" />
      <stop
         id="stop5593-5"
         offset="1"
         style="stop-color:#19601b;stop-opacity:1" />
    </linearGradient>
    <linearGradient
       y2="253.73225"
       x2="117.66755"
       y1="33.623344"
       x1="117.698"
       gradientTransform="matrix(0.30420754,0,0,0.30420754,767.2418,227.53361)"
       gradientUnits="userSpaceOnUse"
       id="linearGradient5613-9"
       xlink:href="#linearGradient5589-0"
       inkscape:collect="always" />
    <linearGradient
       y2="253.73225"
       x2="117.66755"
       y1="33.623344"
       x1="117.698"
       gradientTransform="matrix(0.30420754,0,0,0.30420754,514.38463,227.17646)"
       gradientUnits="userSpaceOnUse"
       id="linearGradient5475-0-0"
       xlink:href="#linearGradient5589-4"
       inkscape:collect="always" />
    <linearGradient
       id="linearGradient5589-4"
       inkscape:collect="always">
      <stop
         id="stop5591-6"
         offset="0"
         style="stop-color:#ffffff;stop-opacity:1" />
      <stop
         id="stop5593-7"
         offset="1"
         style="stop-color:#19601b;stop-opacity:1" />
    </linearGradient>
    <linearGradient
       y2="253.73225"
       x2="117.66755"
       y1="33.623344"
       x1="117.698"
       gradientTransform="matrix(0.30420754,0,0,0.30420754,516.52751,316.10504)"
       gradientUnits="userSpaceOnUse"
       id="linearGradient5613-8"
       xlink:href="#linearGradient5696"
       inkscape:collect="always" />
    <linearGradient
       y2="253.73225"
       x2="117.66755"
       y1="33.623344"
       x1="117.698"
       gradientTransform="matrix(0.30420754,0,0,0.30420754,516.52751,316.10504)"
       gradientUnits="userSpaceOnUse"
       id="linearGradient5613-8-4"
       xlink:href="#linearGradient5696-3"
       inkscape:collect="always" />
    <linearGradient
       inkscape:collect="always"
       id="linearGradient5696-3">
      <stop
         style="stop-color:#ffffff;stop-opacity:1"
         offset="0"
         id="stop5698-8" />
      <stop
         style="stop-color:#29859d;stop-opacity:1"
         offset="1"
         id="stop5700-5" />
    </linearGradient>
    <linearGradient
       y2="253.73225"
       x2="117.66755"
       y1="33.623344"
       x1="117.698"
       gradientTransform="matrix(0.30420754,0,0,0.30420754,517.59893,416.10504)"
       gradientUnits="userSpaceOnUse"
       id="linearGradient5720"
       xlink:href="#linearGradient5696-3"
       inkscape:collect="always" />
    <linearGradient
       y2="253.73225"
       x2="117.66755"
       y1="33.623344"
       x1="117.698"
       gradientTransform="matrix(0.30420754,0,0,0.30420754,516.52751,316.10504)"
       gradientUnits="userSpaceOnUse"
       id="linearGradient5613-8-7"
       xlink:href="#linearGradient5696-4"
       inkscape:collect="always" />
    <linearGradient
       inkscape:collect="always"
       id="linearGradient5696-4">
      <stop
         style="stop-color:#ffffff;stop-opacity:1"
         offset="0"
         id="stop5698-2" />
      <stop
         style="stop-color:#29859d;stop-opacity:1"
         offset="1"
         id="stop5700-8" />
    </linearGradient>
    <linearGradient
       y2="253.73225"
       x2="117.66755"
       y1="33.623344"
       x1="117.698"
       gradientTransform="matrix(0.30420754,0,0,0.30420754,679.02751,418.96219)"
       gradientUnits="userSpaceOnUse"
       id="linearGradient5720-7"
       xlink:href="#linearGradient5696-4"
       inkscape:collect="always" />
    <linearGradient
       inkscape:collect="always"
       xlink:href="#linearGradient5432"
       id="linearGradient5884"
       gradientUnits="userSpaceOnUse"
       gradientTransform="matrix(0.30420754,0,0,0.30420754,516.83864,25.71625)"
       x1="117.698"
       y1="33.623344"
       x2="117.66755"
       y2="138.67921" />
    <linearGradient
       inkscape:collect="always"
       xlink:href="#linearGradient5432-2"
       id="linearGradient5886"
       gradientUnits="userSpaceOnUse"
       gradientTransform="matrix(0.30420754,0,0,0.30420754,682.24176,26.462166)"
       x1="117.698"
       y1="33.623344"
       x2="117.66755"
       y2="138.67921" />
    <linearGradient
       inkscape:collect="always"
       xlink:href="#linearGradient5432-6"
       id="linearGradient5888"
       gradientUnits="userSpaceOnUse"
       gradientTransform="matrix(0.30420754,0,0,0.30420754,515.8132,126.46217)"
       x1="117.698"
       y1="33.623344"
       x2="117.66755"
       y2="138.67921" />
    <linearGradient
       inkscape:collect="always"
       xlink:href="#linearGradient5432-5"
       id="linearGradient5890"
       gradientUnits="userSpaceOnUse"
       gradientTransform="matrix(0.30420754,0,0,0.30420754,682.95605,127.17645)"
       x1="117.698"
       y1="33.623344"
       x2="117.66755"
       y2="138.67921" />
    <linearGradient
       inkscape:collect="always"
       xlink:href="#linearGradient5589"
       id="linearGradient5892"
       gradientUnits="userSpaceOnUse"
       gradientTransform="matrix(0.30420754,0,0,0.30420754,514.38463,227.17646)"
       x1="117.698"
       y1="33.623344"
       x2="117.66755"
       y2="253.73225" />
    <linearGradient
       inkscape:collect="always"
       xlink:href="#linearGradient5589-2"
       id="linearGradient5894"
       gradientUnits="userSpaceOnUse"
       gradientTransform="matrix(0.30420754,0,0,0.30420754,644.38466,227.53361)"
       x1="117.698"
       y1="33.623344"
       x2="117.66755"
       y2="253.73225" />
    <linearGradient
       inkscape:collect="always"
       xlink:href="#linearGradient5589-0"
       id="linearGradient5896"
       gradientUnits="userSpaceOnUse"
       gradientTransform="matrix(0.30420754,0,0,0.30420754,767.2418,227.53361)"
       x1="117.698"
       y1="33.623344"
       x2="117.66755"
       y2="253.73225" />
    <linearGradient
       inkscape:collect="always"
       xlink:href="#linearGradient5696"
       id="linearGradient5898"
       gradientUnits="userSpaceOnUse"
       gradientTransform="matrix(0.30420754,0,0,0.30420754,516.52751,316.10504)"
       x1="117.698"
       y1="33.623344"
       x2="117.66755"
       y2="253.73225" />
    <linearGradient
       inkscape:collect="always"
       xlink:href="#linearGradient5696-3"
       id="linearGradient5900"
       gradientUnits="userSpaceOnUse"
       gradientTransform="matrix(0.30420754,0,0,0.30420754,517.59893,416.10504)"
       x1="117.698"
       y1="33.623344"
       x2="117.66755"
       y2="253.73225" />
    <linearGradient
       inkscape:collect="always"
       xlink:href="#linearGradient5696-4"
       id="linearGradient5902"
       gradientUnits="userSpaceOnUse"
       gradientTransform="matrix(0.30420754,0,0,0.30420754,679.02751,418.96219)"
       x1="117.698"
       y1="33.623344"
       x2="117.66755"
       y2="253.73225" />
  </defs>
  <sodipodi:namedview
     id="base"
     pagecolor="#ffffff"
     bordercolor="#666666"
     borderopacity="1.0"
     inkscape:pageopacity="0.0"
     inkscape:pageshadow="2"
     inkscape:zoom="0.98994949"
     inkscape:cx="657.17954"
     inkscape:cy="762.43661"
     inkscape:document-units="px"
     inkscape:current-layer="layer1"
     showgrid="false"
     inkscape:window-width="1657"
     inkscape:window-height="969"
     inkscape:window-x="153"
     inkscape:window-y="172"
     inkscape:window-maximized="0" />
  <metadata
     id="metadata4919">
    <rdf:RDF>
      <cc:Work
         rdf:about="">
        <dc:format>image/svg+xml</dc:format>
        <dc:type
           rdf:resource="http://purl.org/dc/dcmitype/StillImage" />
        <dc:title></dc:title>
      </cc:Work>
    </rdf:RDF>
  </metadata>
  <g
     inkscape:label="Layer 1"
     inkscape:groupmode="layer"
     id="layer1">
    <g
       id="g5833"
       transform="translate(-509.11688,-24.243661)">
      <g
         id="g5774">
        <rect
           style="fill:url(#linearGradient5884);fill-opacity:1;stroke:#000000;stroke-width:0.91262263;stroke-linecap:butt;stroke-linejoin:round;stroke-miterlimit:4;stroke-opacity:1;stroke-dasharray:none;stroke-dashoffset:0"
           id="rect4922"
           width="146.48055"
           height="80.221809"
           x="524.21375"
           y="35.791073"
           ry="7.6824002" />
        <text
           xml:space="preserve"
           style="font-size:12.16830158px;font-style:normal;font-variant:normal;font-weight:normal;font-stretch:normal;text-align:center;line-height:125%;letter-spacing:0px;word-spacing:0px;writing-mode:lr-tb;text-anchor:middle;fill:#000000;fill-opacity:1;stroke:none;font-family:Sans;-inkscape-font-specification:Sans"
           x="597.04291"
           y="73.539192"
           id="text5440"
           sodipodi:linespacing="125%"><tspan
             sodipodi:role="line"
             id="tspan5442"
             x="597.04291"
             y="73.539192">Shared Access Layer</tspan><tspan
             sodipodi:role="line"
             x="597.04291"
             y="88.749573"
             id="tspan5444">(SAL)</tspan></text>
      </g>
      <g
         id="g5780">
        <rect
           style="fill:url(#linearGradient5886);fill-opacity:1;stroke:#000000;stroke-width:0.91262263;stroke-linecap:butt;stroke-linejoin:round;stroke-miterlimit:4;stroke-opacity:1;stroke-dasharray:none;stroke-dashoffset:0"
           id="rect4922-2"
           width="146.48055"
           height="80.221809"
           x="689.61682"
           y="36.536995"
           ry="7.6824002" />
        <text
           xml:space="preserve"
           style="font-size:12.16830158px;font-style:normal;font-variant:normal;font-weight:normal;font-stretch:normal;text-align:center;line-height:125%;letter-spacing:0px;word-spacing:0px;writing-mode:lr-tb;text-anchor:middle;fill:#000000;fill-opacity:1;stroke:none;font-family:Sans;-inkscape-font-specification:Sans"
           x="762.44598"
           y="74.285118"
           id="text5440-4"
           sodipodi:linespacing="125%"><tspan
             sodipodi:role="line"
             x="762.44598"
             y="74.285118"
             id="tspan5502">Atlassian User</tspan><tspan
             sodipodi:role="line"
             x="762.44598"
             y="89.495499"
             id="tspan5506">Interface (AUI)</tspan></text>
      </g>
      <g
         id="g5786">
        <rect
           style="fill:url(#linearGradient5888);fill-opacity:1;stroke:#000000;stroke-width:0.91262263;stroke-linecap:butt;stroke-linejoin:round;stroke-miterlimit:4;stroke-opacity:1;stroke-dasharray:none;stroke-dashoffset:0"
           id="rect4922-4"
           width="146.48055"
           height="80.221809"
           x="523.18829"
           y="136.53699"
           ry="7.6824002" />
        <text
           xml:space="preserve"
           style="font-size:12.16830158px;font-style:normal;font-variant:normal;font-weight:normal;font-stretch:normal;text-align:center;line-height:125%;letter-spacing:0px;word-spacing:0px;writing-mode:lr-tb;text-anchor:middle;fill:#000000;fill-opacity:1;stroke:none;font-family:Sans;-inkscape-font-specification:Sans"
           x="596.01746"
           y="174.28511"
           id="text5440-7"
           sodipodi:linespacing="125%"><tspan
             sodipodi:role="line"
             x="596.01746"
             y="174.28511"
             id="tspan5444-9">Atlassian REST Plugin</tspan><tspan
             sodipodi:role="line"
             x="596.01746"
             y="189.49548"
             id="tspan5533">Module</tspan></text>
      </g>
      <g
         id="g5792">
        <rect
           style="fill:url(#linearGradient5890);fill-opacity:1;stroke:#000000;stroke-width:0.91262263;stroke-linecap:butt;stroke-linejoin:round;stroke-miterlimit:4;stroke-opacity:1;stroke-dasharray:none;stroke-dashoffset:0"
           id="rect4922-21"
           width="146.48055"
           height="80.221809"
           x="690.33118"
           y="137.25128"
           ry="7.6824002" />
        <text
           xml:space="preserve"
           style="font-size:12.16830158px;font-style:normal;font-variant:normal;font-weight:normal;font-stretch:normal;text-align:center;line-height:125%;letter-spacing:0px;word-spacing:0px;writing-mode:lr-tb;text-anchor:middle;fill:#000000;fill-opacity:1;stroke:none;font-family:Sans;-inkscape-font-specification:Sans"
           x="763.16034"
           y="174.99939"
           id="text5440-2"
           sodipodi:linespacing="125%"><tspan
             sodipodi:role="line"
             x="763.16034"
             y="174.99939"
             id="tspan5444-6">Atlassian Template</tspan><tspan
             sodipodi:role="line"
             x="763.16034"
             y="190.20976"
             id="tspan5560">Renderer</tspan></text>
      </g>
      <g
         id="g5798">
        <rect
           style="fill:url(#linearGradient5892);fill-opacity:1;stroke:#000000;stroke-width:0.91262263;stroke-linecap:butt;stroke-linejoin:round;stroke-miterlimit:4;stroke-opacity:1;stroke-dasharray:none;stroke-dashoffset:0"
           id="rect4922-24"
           width="107.9091"
           height="66.650391"
           x="521.7597"
           y="237.25127"
           ry="7.6824002" />
        <text
           xml:space="preserve"
           style="font-size:12.16830158px;font-style:normal;font-variant:normal;font-weight:normal;font-stretch:normal;text-align:center;line-height:125%;letter-spacing:0px;word-spacing:0px;writing-mode:lr-tb;text-anchor:middle;fill:#000000;fill-opacity:1;stroke:none;font-family:Sans;-inkscape-font-specification:Sans"
           x="575.30316"
           y="264.28513"
           id="text5440-6"
           sodipodi:linespacing="125%"><tspan
             sodipodi:role="line"
             x="575.30316"
             y="264.28513"
             id="tspan5444-96">Unified Plugin</tspan><tspan
             sodipodi:role="line"
             x="575.30316"
             y="279.49551"
             id="tspan5587">Manager (UPM</tspan></text>
      </g>
      <g
         id="g5804">
        <rect
           style="fill:url(#linearGradient5894);fill-opacity:1;stroke:#000000;stroke-width:0.91262263;stroke-linecap:butt;stroke-linejoin:round;stroke-miterlimit:4;stroke-opacity:1;stroke-dasharray:none;stroke-dashoffset:0"
           id="rect4922-24-1"
           width="107.9091"
           height="66.650391"
           x="651.7597"
           y="237.60841"
           ry="7.6824002" />
        <text
           xml:space="preserve"
           style="font-size:12.16830158px;font-style:normal;font-variant:normal;font-weight:normal;font-stretch:normal;text-align:center;line-height:125%;letter-spacing:0px;word-spacing:0px;writing-mode:lr-tb;text-anchor:middle;fill:#000000;fill-opacity:1;stroke:none;font-family:Sans;-inkscape-font-specification:Sans"
           x="705.30316"
           y="261.78516"
           id="text5440-6-5"
           sodipodi:linespacing="125%"><tspan
             sodipodi:role="line"
             x="705.30316"
             y="261.78516"
             id="tspan5587-2">Unified</tspan><tspan
             sodipodi:role="line"
             x="705.30316"
             y="276.99554"
             id="tspan5640">Application</tspan><tspan
             sodipodi:role="line"
             x="705.30316"
             y="292.2059"
             id="tspan5642">Links (UAL)</tspan></text>
      </g>
      <g
         id="g5811">
        <rect
           style="fill:url(#linearGradient5896);fill-opacity:1;stroke:#000000;stroke-width:0.91262263;stroke-linecap:butt;stroke-linejoin:round;stroke-miterlimit:4;stroke-opacity:1;stroke-dasharray:none;stroke-dashoffset:0"
           id="rect4922-24-0"
           width="107.9091"
           height="66.650391"
           x="774.61688"
           y="237.60841"
           ry="7.6824002" />
        <text
           xml:space="preserve"
           style="font-size:12.16830158px;font-style:normal;font-variant:normal;font-weight:normal;font-stretch:normal;text-align:center;line-height:125%;letter-spacing:0px;word-spacing:0px;writing-mode:lr-tb;text-anchor:middle;fill:#000000;fill-opacity:1;stroke:none;font-family:Sans;-inkscape-font-specification:Sans"
           x="828.16034"
           y="264.64227"
           id="text5440-6-0"
           sodipodi:linespacing="125%"><tspan
             sodipodi:role="line"
             x="828.16034"
             y="264.64227"
             id="tspan5587-3">OAuth</tspan></text>
      </g>
      <g
         id="g5816">
        <rect
           style="fill:url(#linearGradient5898);fill-opacity:1;stroke:#000000;stroke-width:0.91262263;stroke-linecap:butt;stroke-linejoin:round;stroke-miterlimit:4;stroke-opacity:1;stroke-dasharray:none;stroke-dashoffset:0"
           id="rect4922-24-5"
           width="481.48056"
           height="79.50753"
           x="523.90259"
           y="326.17984"
           ry="7.6824002" />
        <text
           xml:space="preserve"
           style="font-size:12.16830158px;font-style:normal;font-variant:normal;font-weight:normal;font-stretch:normal;text-align:center;line-height:125%;letter-spacing:0px;word-spacing:0px;writing-mode:lr-tb;text-anchor:middle;fill:#000000;fill-opacity:1;stroke:none;font-family:Sans;-inkscape-font-specification:Sans"
           x="766.01746"
           y="361.78513"
           id="text5440-6-3"
           sodipodi:linespacing="125%"><tspan
             sodipodi:role="line"
             x="766.01746"
             y="361.78513"
             id="tspan5587-5">OSGi plugins</tspan><tspan
             sodipodi:role="line"
             x="766.01746"
             y="376.99551"
             id="tspan5694">(v2)</tspan></text>
      </g>
      <g
         id="g5822">
        <rect
           style="fill:url(#linearGradient5900);fill-opacity:1;stroke:#000000;stroke-width:0.91262263;stroke-linecap:butt;stroke-linejoin:round;stroke-miterlimit:4;stroke-opacity:1;stroke-dasharray:none;stroke-dashoffset:0"
           id="rect4922-24-5-1"
           width="481.48056"
           height="79.50753"
           x="524.974"
           y="426.17984"
           ry="7.6824002" />
        <text
           xml:space="preserve"
           style="font-size:12.16830158px;font-style:normal;font-variant:normal;font-weight:normal;font-stretch:normal;text-align:center;line-height:125%;letter-spacing:0px;word-spacing:0px;writing-mode:lr-tb;text-anchor:middle;fill:#000000;fill-opacity:1;stroke:none;font-family:Sans;-inkscape-font-specification:Sans"
           x="767.08887"
           y="461.78513"
           id="text5440-6-3-7"
           sodipodi:linespacing="125%"><tspan
             sodipodi:role="line"
             x="767.08887"
             y="461.78513"
             id="tspan5694-2">Atlassian Plugin Framework</tspan></text>
      </g>
      <g
         id="g5827">
        <rect
           style="fill:url(#linearGradient5902);fill-opacity:1;stroke:#000000;stroke-width:0.91262263;stroke-linecap:butt;stroke-linejoin:round;stroke-miterlimit:4;stroke-opacity:1;stroke-dasharray:none;stroke-dashoffset:0"
           id="rect4922-24-5-5"
           width="147.19485"
           height="83.07901"
           x="1023.5455"
           y="425.46555"
           ry="7.6824002" />
        <text
           xml:space="preserve"
           style="font-size:12.16830158px;font-style:normal;font-variant:normal;font-weight:normal;font-stretch:normal;text-align:center;line-height:125%;letter-spacing:0px;word-spacing:0px;writing-mode:lr-tb;text-anchor:middle;fill:#000000;fill-opacity:1;stroke:none;font-family:Sans;-inkscape-font-specification:Sans"
           x="1097.8031"
           y="461.78513"
           id="text5440-6-3-6"
           sodipodi:linespacing="125%"><tspan
             sodipodi:role="line"
             x="1097.8031"
             y="461.78513"
             id="tspan5694-1">Static plugins</tspan><tspan
             sodipodi:role="line"
             x="1097.8031"
             y="476.99551"
             id="tspan5772">(v1)</tspan></text>
      </g>
    </g>
  </g>
</svg>
